1,paul,PA,6.75,77.3,Laminate,1.75,2.1,135.275,162.33,20.0883375,317.69333750000004,03092016
3,Jake,IN,6.0,999.4,Wood,5.15,4.75,5146.91,4747.15,593.6436,10487.703599999999,03092016
4,Ursula,PA,6.75,5000.78,Carpet,2.25,2.1,11251.755,10501.637999999999,1468.3540274999998,23221.747027499998,03092016
5,Name,OH,6.25,66.0,Carpet,2.25,2.1,148.5,138.6,17.94375,305.04375000000005,03092016
6,sara,MI,5.75,7190.93,Tile,3.5,4.15,25168.255,29842.359500000002,3163.11033375,58173.724833750006,03092016
7,man with many golden guns,IN,6.0,12.0,Carpet,2.25,2.1,27.0,25.200000000000003,3.1320000000000006,55.332,03092016
8,Billy Bob,OH,6.25,25.0,Tile,3.5,4.15,87.5,103.75000000000001,11.953125,203.203125,03092016
9,yessir,PA,6.75,30.0,Laminate,1.75,2.1,52.5,63.0,7.79625,123.29625,03092016
10,johnny $$$,MI,5.75,85.2,Carpet,2.25,2.1,191.70000000000002,178.92000000000002,21.31065,391.93065,03092016
12,New,MI,5.75,42.0,Tile,3.5,4.15,147.0,174.3,18.47475,339.77475000000004,03092016
13,New,MI,5.75,42.0,Tile,3.5,4.15,147.0,174.3,18.47475,339.77475000000004,03092016
11,Ilya,OH,6.25,100.0,Laminate,1.75,2.1,175.0,210.0,24.0625,409.0625,03092016
15,come on,PA,6.75,77.0,Wood,5.15,4.75,396.55,365.75,51.45525,813.7552499999999,03092016
16,Danny,PA,6.75,75.1,Wood,5.15,4.75,386.765,356.72499999999997,50.185575,793.675575,03092016
